[NbConvertApp] WARNING | Config option `kernel_spec_manager_class` not recognized by `NbConvertApp`.
[NbConvertApp] Converting notebook figure3.ipynb to script
[NbConvertApp] Writing 23662 bytes to figure3.r
[1] 3735
[1] 12
[1] 2415
[1] 12
# A tibble: 2,415 × 12
   group1    group2  meandiff  lower   upper `p-adj` reject features `p-adj_abs`
   <chr>     <chr>      <dbl>  <dbl>   <dbl>   <dbl> <lgl>  <chr>          <dbl>
 1 apoptosis healthy  -0.0071 0.0005 -0.0138 -0.0003 TRUE   Cytopla…      0.0003
 2 apoptosis pyropt…  -0.0071 0.0004 -0.0139 -0.0004 TRUE   Cytopla…      0.0004
 3 healthy   pyropt…  -0.0001 0.995  -0.0032  0.003  FALSE  Cytopla…      0.003
 4 apoptosis healthy  -0.0329 0      -0.0398 -0.0259 TRUE   Cells_R…      0.0259
 5 apoptosis pyropt…   0.0412 0       0.0342  0.0482 TRUE   Cells_R…      0.0482
 6 apoptosis healthy   0.0036 0.131  -0.0031  0.0104 FALSE  Cytopla…      0.0104
 7 apoptosis pyropt…  -0.0003 0.990  -0.007   0.0065 FALSE  Cytopla…      0.0065
 8 healthy   pyropt…  -0.0039 0      -0.007  -0.0008 TRUE   Cytopla…      0.0008
 9 apoptosis healthy   0.0035 0.148  -0.0032  0.0103 FALSE  Cytopla…      0.0103
10 apoptosis pyropt…   0.0079 0.0001  0.0011  0.0147 TRUE   Cytopla…      0.0147
# ℹ 2,405 more rows
# ℹ 3 more variables: pos_neg <chr>, `__index_level_0__` <int>, group <chr>
…
